projectKey=test
serverUrl=http://192.168.1.121:9000
serverVersion=7.5.0.20543
dashboardUrl=http://192.168.1.121:9000/dashboard?id=test
ceTaskId=AWhLr20DnTOTbIwpxhzI
ceTaskUrl=http://192.168.1.121:9000/api/ce/task?id=AWhLr20DnTOTbIwpxhzI
